module ping-latency-exporter

go 1.22

require (
	github.com/aws/aws-lambda-go v1.46.0
	github.com/awslabs/aws-lambda-go-api-proxy v0.16.1
	github.com/prometheus-community/pro-bing v0.4.0
	github.com/prometheus/client_golang v1.19.0
	gopkg.in/natefinch/lumberjack.v2 v2.2.1
)

require (
	github.com/beorn7/perks v1.0.1 // indirect
	github.com/cespare/xxhash/v2 v2.2.0 // indirect
	github.com/google/uuid v1.6.0 // indirect
	github.com/prometheus/client_model v0.5.0 // indirect
	github.com/prometheus/common v0.48.0 // indirect
	github.com/prometheus/procfs v0.12.0 // indirect
	golang.org/x/net v0.21.0 // indirect
	golang.org/x/sync v0.6.0 // indirect
	golang.org/x/sys v0.17.0 // indirect
	google.golang.org/protobuf v1.32.0 // indirect
)
